module bitbucket.org/matoski/viper

require (
	github.com/fsnotify/fsnotify v1.4.7
	github.com/hashicorp/hcl v1.0.0
	github.com/magiconair/properties v1.8.0
	github.com/mitchellh/mapstructure v1.0.0
	github.com/pelletier/go-toml v1.2.0
	github.com/spf13/afero v1.1.2
	github.com/spf13/cast v1.2.0
	github.com/spf13/jwalterweatherman v1.0.0
	github.com/spf13/pflag v1.0.2
	golang.org/x/sys v0.0.0-20180906133057-8cf3aee42992 // indirect
	golang.org/x/text v0.3.0 // indirect
	gopkg.in/yaml.v2 v2.2.1
)
